<?xml version="1.0" encoding="UTF-8" standalone="no"?>
<!DOCTYPE svg PUBLIC "-//W3C//DTD SVG 1.1//EN"
 "http://www.w3.org/Graphics/SVG/1.1/DTD/svg11.dtd">
<!-- Generated by graphviz version 2.47.2 (20210527.0053)
 -->
<!-- Title: G Pages: 1 -->
<svg width="913pt" height="375pt"
 viewBox="0.00 0.00 913.00 375.00" xmlns="http://www.w3.org/2000/svg" xmlns:xlink="http://www.w3.org/1999/xlink">
<g id="graph0" class="graph" transform="scale(1 1) rotate(0) translate(4 371)">
<title>G</title>
<polygon fill="white" stroke="transparent" points="-4,4 -4,-371 909,-371 909,4 -4,4"/>
<text text-anchor="middle" x="452.5" y="-351.8" font-family="Times,serif" font-size="14.00">Gitops Workflow</text>
<g id="clust1" class="cluster">
<title>cluster_Laptop</title>
<polygon fill="lightyellow" stroke="lightyellow" points="8,-139 8,-336 509.5,-336 509.5,-139 8,-139"/>
<text text-anchor="middle" x="258.75" y="-320.8" font-family="Times,serif" font-size="14.00">Laptop/Workstation</text>
</g>
<g id="clust2" class="cluster">
<title>cluster_GitopsRepo</title>
<polygon fill="lightgrey" stroke="lightgrey" points="21.5,-230 21.5,-305 501.5,-305 501.5,-230 21.5,-230"/>
<text text-anchor="middle" x="261.5" y="-289.8" font-family="Times,serif" font-size="14.00">GitOps Repo</text>
</g>
<g id="clust3" class="cluster">
<title>cluster_ApiRepo</title>
<polygon fill="lightgrey" stroke="lightgrey" points="16,-147 16,-222 108,-222 108,-147 16,-147"/>
<text text-anchor="middle" x="62" y="-206.8" font-family="Times,serif" font-size="14.00">API Repo</text>
</g>
<g id="clust4" class="cluster">
<title>cluster_GitLab</title>
<polygon fill="lightgrey" stroke="lightgrey" points="225,-56 225,-131 303,-131 303,-56 225,-56"/>
<text text-anchor="middle" x="264" y="-115.8" font-family="Times,serif" font-size="14.00">GitLab</text>
</g>
<g id="clust5" class="cluster">
<title>cluster_OpenShift</title>
<polygon fill="lightgrey" stroke="lightgrey" points="609,-76 609,-259 897,-259 897,-76 609,-76"/>
<text text-anchor="middle" x="753" y="-243.8" font-family="Times,serif" font-size="14.00">OpenShift</text>
</g>
<g id="clust6" class="cluster">
<title>cluster_Nexus</title>
<polygon fill="lightgrey" stroke="lightgrey" points="418.5,-8 418.5,-83 514.5,-83 514.5,-8 418.5,-8"/>
<text text-anchor="middle" x="466.5" y="-67.8" font-family="Times,serif" font-size="14.00">Nexus</text>
</g>
<!-- Makefile -->
<g id="node1" class="node">
<title>Makefile</title>
<polygon fill="white" stroke="white" points="94.5,-274 29.5,-274 29.5,-238 94.5,-238 94.5,-274"/>
<text text-anchor="middle" x="62" y="-252.3" font-family="Times,serif" font-size="14.00">Makefile</text>
</g>
<!-- Dhall -->
<g id="node2" class="node">
<title>Dhall</title>
<polygon fill="white" stroke="white" points="291,-274 237,-274 237,-238 291,-238 291,-274"/>
<text text-anchor="middle" x="264" y="-252.3" font-family="Times,serif" font-size="14.00">Dhall</text>
</g>
<!-- Makefile&#45;&gt;Dhall -->
<g id="edge1" class="edge">
<title>Makefile&#45;&gt;Dhall</title>
<path fill="none" stroke="black" d="M94.69,-256C130.63,-256 189.13,-256 226.83,-256"/>
<polygon fill="black" stroke="black" points="226.88,-259.5 236.88,-256 226.88,-252.5 226.88,-259.5"/>
<text text-anchor="middle" x="166.5" y="-259.8" font-family="Times,serif" font-size="14.00">3. make deploy&#45;*</text>
</g>
<!-- Auth -->
<g id="node9" class="node">
<title>Auth</title>
<polygon fill="white" stroke="white" points="708.5,-228 654.5,-228 654.5,-192 708.5,-192 708.5,-228"/>
<text text-anchor="middle" x="681.5" y="-206.3" font-family="Times,serif" font-size="14.00">Auth</text>
</g>
<!-- Makefile&#45;&gt;Auth -->
<g id="edge5" class="edge">
<title>Makefile&#45;&gt;Auth</title>
<path fill="none" stroke="black" d="M94.51,-249.56C127.04,-243.2 179.34,-233.74 225,-229 380.45,-212.87 567.1,-210.32 644.33,-210"/>
<polygon fill="black" stroke="black" points="644.49,-213.49 654.48,-209.96 644.47,-206.49 644.49,-213.49"/>
<text text-anchor="middle" x="357" y="-224.8" font-family="Times,serif" font-size="14.00">2. make login&#45;*</text>
</g>
<!-- Yaml -->
<g id="node3" class="node">
<title>Yaml</title>
<polygon fill="white" stroke="white" points="493.5,-274 439.5,-274 439.5,-238 493.5,-238 493.5,-274"/>
<text text-anchor="middle" x="466.5" y="-252.3" font-family="Times,serif" font-size="14.00">Yaml</text>
</g>
<!-- Dhall&#45;&gt;Yaml -->
<g id="edge2" class="edge">
<title>Dhall&#45;&gt;Yaml</title>
<path fill="none" stroke="black" d="M291.21,-256C326.49,-256 389.39,-256 429.2,-256"/>
<polygon fill="black" stroke="black" points="429.28,-259.5 439.28,-256 429.28,-252.5 429.28,-259.5"/>
<text text-anchor="middle" x="357" y="-259.8" font-family="Times,serif" font-size="14.00">dhall&#45;to&#45;yaml</text>
</g>
<!-- Env -->
<g id="node8" class="node">
<title>Env</title>
<polygon fill="white" stroke="white" points="746,-174 617,-174 617,-138 746,-138 746,-174"/>
<text text-anchor="middle" x="681.5" y="-152.3" font-family="Times,serif" font-size="14.00">Envs (I1, U1, T1, ..)</text>
</g>
<!-- Yaml&#45;&gt;Env -->
<g id="edge9" class="edge">
<title>Yaml&#45;&gt;Env</title>
<path fill="none" stroke="black" d="M493.66,-241.35C521.73,-225.9 567.83,-201.32 609,-183 612.89,-181.27 616.92,-179.55 621.01,-177.87"/>
<polygon fill="black" stroke="black" points="622.61,-180.99 630.58,-174.01 620,-174.5 622.61,-180.99"/>
<text text-anchor="middle" x="565.5" y="-222.8" font-family="Times,serif" font-size="14.00">oc apply</text>
</g>
<!-- LocalRepo -->
<g id="node4" class="node">
<title>LocalRepo</title>
<polygon fill="white" stroke="white" points="100,-191 24,-191 24,-155 100,-155 100,-191"/>
<text text-anchor="middle" x="62" y="-169.3" font-family="Times,serif" font-size="14.00">LocalRepo</text>
</g>
<!-- GitRepo -->
<g id="node5" class="node">
<title>GitRepo</title>
<polygon fill="white" stroke="white" points="295,-100 233,-100 233,-64 295,-64 295,-100"/>
<text text-anchor="middle" x="264" y="-78.3" font-family="Times,serif" font-size="14.00">GitRepo</text>
</g>
<!-- LocalRepo&#45;&gt;GitRepo -->
<g id="edge4" class="edge">
<title>LocalRepo&#45;&gt;GitRepo</title>
<path fill="none" stroke="black" d="M100.15,-156.1C135.3,-140.1 187.88,-116.18 223.72,-99.87"/>
<polygon fill="black" stroke="black" points="225.25,-103.02 232.9,-95.69 222.35,-96.65 225.25,-103.02"/>
<text text-anchor="middle" x="166.5" y="-149.8" font-family="Times,serif" font-size="14.00">1. git push</text>
</g>
<!-- BuildPipeline -->
<g id="node6" class="node">
<title>BuildPipeline</title>
<polygon fill="white" stroke="white" points="727,-120 636,-120 636,-84 727,-84 727,-120"/>
<text text-anchor="middle" x="681.5" y="-98.3" font-family="Times,serif" font-size="14.00">BuildPipeline</text>
</g>
<!-- GitRepo&#45;&gt;BuildPipeline -->
<g id="edge6" class="edge">
<title>GitRepo&#45;&gt;BuildPipeline</title>
<path fill="none" stroke="black" d="M295.03,-83.48C344.45,-85.9 446.01,-90.88 532,-95 563.11,-96.49 597.89,-98.13 625.97,-99.45"/>
<polygon fill="black" stroke="black" points="625.83,-102.95 635.99,-99.92 626.16,-95.95 625.83,-102.95"/>
<text text-anchor="middle" x="466.5" y="-97.8" font-family="Times,serif" font-size="14.00">GitLab Webhook</text>
</g>
<!-- DevEnv -->
<g id="node7" class="node">
<title>DevEnv</title>
<polygon fill="white" stroke="white" points="889,-120 828,-120 828,-84 889,-84 889,-120"/>
<text text-anchor="middle" x="858.5" y="-98.3" font-family="Times,serif" font-size="14.00">DevEnv</text>
</g>
<!-- BuildPipeline&#45;&gt;DevEnv -->
<g id="edge3" class="edge">
<title>BuildPipeline&#45;&gt;DevEnv</title>
<path fill="none" stroke="black" d="M727.11,-102C755.01,-102 790.62,-102 817.58,-102"/>
<polygon fill="black" stroke="black" points="817.82,-105.5 827.82,-102 817.82,-98.5 817.82,-105.5"/>
<text text-anchor="middle" x="787" y="-105.8" font-family="Times,serif" font-size="14.00">oc patch</text>
</g>
<!-- ImageStore -->
<g id="node10" class="node">
<title>ImageStore</title>
<polygon fill="white" stroke="white" points="506.5,-52 426.5,-52 426.5,-16 506.5,-16 506.5,-52"/>
<text text-anchor="middle" x="466.5" y="-30.3" font-family="Times,serif" font-size="14.00">ImageStore</text>
</g>
<!-- BuildPipeline&#45;&gt;ImageStore -->
<g id="edge7" class="edge">
<title>BuildPipeline&#45;&gt;ImageStore</title>
<path fill="none" stroke="black" d="M663.35,-83.89C648.06,-69.08 624.24,-49.15 599,-40 572.94,-30.55 542.06,-28.71 516.77,-29.38"/>
<polygon fill="black" stroke="black" points="516.51,-25.89 506.66,-29.79 516.8,-32.89 516.51,-25.89"/>
<text text-anchor="middle" x="565.5" y="-43.8" font-family="Times,serif" font-size="14.00">Store image</text>
</g>
<!-- ImageStore&#45;&gt;Env -->
<g id="edge8" class="edge">
<title>ImageStore&#45;&gt;Env</title>
<path fill="none" stroke="black" d="M490.99,-52.25C518.25,-72.82 565.08,-106.35 609,-129 612.26,-130.68 615.64,-132.31 619.1,-133.89"/>
<polygon fill="black" stroke="black" points="617.77,-137.13 628.33,-137.91 620.57,-130.71 617.77,-137.13"/>
<text text-anchor="middle" x="565.5" y="-125.8" font-family="Times,serif" font-size="14.00">Load image</text>
</g>
</g>
</svg>
