digraph G {
	labelloc="t";
	label="Gitops Workflow";
	rankdir=LR
	layout=dot
	subgraph cluster_Laptop {
		label = "Laptop/Workstation";
		style=filled;
		color=lightyellow;
		subgraph cluster_GitopsRepo {
			label = "GitOps Repo";
			style=filled;
			color=lightgrey;
			node [style=filled,color=white];
			Makefile [shape=box];
			Dhall [shape=box];
			Yaml [shape=box];
			Makefile -> Dhall [label = "3. make deploy-*"];
			Dhall -> Yaml [label = "dhall-to-yaml"]
		}

		subgraph cluster_ApiRepo {
			label = "API Repo";
			style=filled;
			color=lightgrey;
			node [style=filled,color=white];
			LocalRepo [shape=box];
		}
	}

	subgraph cluster_GitLab {
		label = "GitLab";
		style=filled;
		color=lightgrey;
		node [style=filled,color=white];
		GitRepo [shape=box];
	}

	subgraph cluster_OpenShift {
		label = "OpenShift";
		style=filled;
		color=lightgrey;
		node [style=filled,color=white];
		BuildPipeline [shape=box];
		DevEnv [shape=box];
		Env [shape=box,label="Envs (I1, U1, T1, ..)"];
		Auth [shape=box];
		BuildPipeline -> DevEnv [label="oc patch"];
	}

	subgraph cluster_Nexus {
		label = "Nexus";
		style=filled;
		color=lightgrey;
		node [style=filled,color=white];
		ImageStore [shape=box];
	}

	LocalRepo -> GitRepo [label = "1. git push"];
	Makefile -> Auth [label = "2. make login-*"];
	GitRepo -> BuildPipeline [label = "GitLab Webhook"];
	BuildPipeline -> ImageStore [label = "Store image"];
	ImageStore -> Env [label = "Load image"];
        Yaml -> Env [label = "oc apply"];
}
